<?xml version="1.0" standalone="no"?>
<!DOCTYPE svg PUBLIC "-//W3C//DTD SVG 20010904//EN"
 "http://www.w3.org/TR/2001/REC-SVG-20010904/DTD/svg10.dtd">
<svg version="1.0" xmlns="http://www.w3.org/2000/svg"
 width="458.000000pt" height="458.000000pt" viewBox="0 0 458.000000 458.000000"
 preserveAspectRatio="xMidYMid meet">
<metadata>
Created by potrace 1.14, written by Peter Selinger 2001-2017
</metadata>
<g transform="translate(0.000000,458.000000) scale(0.100000,-0.100000)"
fill="#000000" stroke="none">
<path d="M2295 4280 c-3 -11 -24 -43 -46 -72 -27 -36 -39 -63 -39 -86 0 -30
-2 -32 -21 -21 -30 16 -97 5 -124 -21 -46 -44 -36 -130 19 -160 20 -10 26 -20
22 -34 -3 -11 0 -26 6 -33 15 -19 62 -16 81 5 19 20 23 67 7 77 -15 9 -12 25
6 25 23 0 47 -67 41 -115 -8 -60 -54 -97 -115 -93 l-47 3 3 48 c3 36 -1 54
-14 68 -21 23 -67 25 -88 3 -23 -22 -21 -81 3 -96 10 -6 17 -18 14 -25 -8 -20
-57 -43 -94 -43 -66 0 -129 104 -100 166 14 31 30 24 24 -10 -8 -39 13 -66 50
-66 18 0 42 6 53 14 16 13 17 18 6 36 -11 18 -10 25 8 49 50 71 4 161 -83 161
-30 0 -53 -7 -71 -21 -15 -12 -28 -20 -29 -18 -1 2 -7 13 -13 24 -13 24 -190
89 -200 74 -3 -6 52 -163 122 -350 l129 -339 507 0 506 0 26 68 c14 37 72 191
130 342 57 151 101 278 98 282 -10 10 -169 -46 -193 -68 -10 -9 -19 -24 -19
-31 0 -10 -9 -7 -31 11 -22 18 -42 26 -70 26 -51 0 -75 -13 -94 -50 -20 -40
-19 -72 5 -103 21 -27 27 -57 10 -57 -15 0 -12 -16 6 -34 18 -19 75 -21 92 -4
7 7 12 27 12 46 0 38 23 40 28 2 11 -70 -41 -150 -96 -150 -40 0 -89 18 -96
36 -3 8 3 28 15 43 38 52 -3 113 -66 97 -35 -9 -52 -48 -38 -86 14 -37 1 -50
-53 -50 -27 0 -51 7 -67 21 -29 22 -51 85 -41 115 18 57 28 74 41 74 11 0 13
-5 8 -17 -24 -57 -2 -103 49 -103 32 0 63 29 45 41 -10 6 -2 18 29 47 32 30
42 46 42 70 0 73 -52 119 -125 109 -41 -6 -43 -5 -49 24 -3 17 -19 47 -35 67
-15 21 -36 52 -45 70 -19 37 -32 41 -41 12z"/>
<path d="M1480 2828 c0 -489 2 -541 20 -627 62 -304 300 -553 605 -632 112
-29 299 -29 410 0 321 84 557 339 614 665 7 37 11 265 11 593 l0 533 -830 0
-830 0 0 -532z"/>
<path d="M990 1333 c0 -2 7 -11 15 -19 11 -11 15 -37 15 -94 0 -73 2 -80 26
-99 33 -26 94 -28 124 -3 24 19 39 78 40 155 0 26 5 47 11 47 5 0 8 4 5 8 -3
5 -22 8 -43 6 -50 -3 -51 -3 -30 -15 14 -8 17 -24 17 -84 0 -83 -14 -108 -59
-103 -35 4 -51 40 -51 115 0 49 4 64 18 72 9 6 15 11 12 12 -17 4 -100 6 -100
2z"/>
<path d="M1307 1334 c-4 -4 -7 -54 -7 -111 0 -87 -2 -103 -16 -103 -8 0 -12
-4 -9 -10 6 -10 85 -14 85 -4 0 3 -7 12 -15 20 -10 10 -15 35 -15 72 l0 57 78
-78 c42 -42 81 -77 85 -77 4 0 7 45 7 99 0 77 4 103 16 115 8 9 14 16 12 17
-18 6 -80 4 -84 -3 -3 -4 2 -8 10 -8 13 0 16 -13 16 -67 l0 -68 -78 78 c-43
43 -81 74 -85 71z"/>
<path d="M1595 1332 c-2 -2 3 -11 11 -20 20 -20 17 -183 -4 -190 -28 -9 -9
-20 38 -20 49 -1 66 10 35 22 -12 4 -15 25 -15 95 0 75 3 92 18 100 9 6 15 11
12 12 -15 4 -91 4 -95 1z"/>
<path d="M1730 1331 c0 -4 5 -12 10 -17 6 -6 25 -55 43 -109 18 -54 38 -100
44 -102 6 -2 23 30 38 72 l28 77 31 -76 c17 -42 35 -75 40 -73 5 2 25 48 43
103 18 54 41 105 50 112 9 6 15 12 12 13 -47 8 -91 2 -71 -10 11 -7 -15 -121
-28 -121 -4 0 -18 28 -31 62 -13 34 -29 63 -35 65 -6 2 -18 -16 -27 -39 -9
-24 -21 -56 -28 -73 l-11 -30 -19 60 c-10 33 -16 67 -14 76 5 13 -2 16 -35 16
-22 0 -40 -3 -40 -6z"/>
<path d="M2100 1332 c0 -2 7 -10 15 -18 21 -21 21 -166 0 -187 -21 -22 -9 -27
67 -27 l68 0 0 32 c0 29 -1 30 -13 14 -8 -11 -23 -17 -38 -14 -20 2 -25 9 -27
41 -3 34 -1 37 22 37 14 0 26 -4 26 -10 0 -5 5 -10 10 -10 6 0 10 13 10 28 0
26 -2 28 -35 24 -34 -4 -35 -3 -35 32 0 32 3 36 25 36 15 0 28 -7 32 -17 6
-15 7 -15 14 3 14 36 10 39 -66 39 -41 0 -75 -1 -75 -3z"/>
<path d="M2314 1329 c-2 -4 3 -9 11 -13 12 -4 15 -25 15 -95 0 -49 -4 -93 -10
-96 -22 -14 -7 -25 33 -25 50 0 63 8 41 24 -10 8 -14 24 -12 46 l3 35 20 -24
c52 -64 74 -81 104 -81 34 0 42 15 14 24 -10 4 -33 24 -52 47 -31 37 -32 41
-17 58 20 22 21 75 1 91 -16 13 -143 21 -151 9z m118 -45 c13 -29 2 -57 -26
-62 -13 -3 -16 5 -16 42 0 53 22 64 42 20z"/>
<path d="M2603 1325 c-38 -27 -31 -74 17 -119 44 -41 50 -60 21 -76 -15 -7
-23 -6 -35 6 -9 8 -16 20 -16 25 0 5 -5 9 -11 9 -6 0 -9 -14 -7 -32 3 -30 6
-33 41 -36 57 -5 87 19 87 67 0 34 -6 45 -40 74 -22 19 -40 41 -40 49 0 25 29
29 50 8 27 -27 32 -25 28 8 -3 23 -8 27 -38 30 -20 1 -45 -4 -57 -13z"/>
<path d="M2734 1328 c-3 -5 0 -8 6 -8 18 0 90 -121 90 -151 0 -15 -7 -34 -15
-42 -8 -8 -11 -17 -8 -21 10 -10 91 -7 98 4 3 6 0 10 -8 10 -17 0 -27 21 -27
53 0 29 54 122 82 141 12 9 20 16 18 17 -51 6 -80 4 -77 -5 2 -6 -5 -29 -16
-50 l-19 -40 -23 38 c-13 21 -21 44 -19 51 4 9 -7 12 -36 11 -23 0 -44 -4 -46
-8z"/>
<path d="M2980 1313 c0 -13 5 -23 10 -23 6 0 10 5 10 10 0 6 14 10 30 10 l30
0 0 -90 c0 -71 -3 -92 -15 -96 -27 -11 -6 -22 40 -22 46 0 67 11 40 22 -12 4
-15 25 -15 96 0 82 2 90 19 90 11 0 27 -7 35 -16 15 -14 16 -13 16 13 l0 28
-100 0 c-97 0 -100 -1 -100 -22z"/>
<path d="M3234 1329 c-2 -4 3 -9 11 -13 12 -4 15 -25 15 -96 0 -71 -3 -92 -15
-96 -31 -12 -3 -22 64 -23 66 -1 69 0 75 25 8 32 -2 46 -15 21 -6 -9 -21 -17
-34 -17 -22 0 -25 4 -25 40 0 32 4 40 18 40 10 0 23 -5 30 -12 9 -9 12 -8 12
4 0 9 3 23 6 32 5 12 -1 14 -30 9 -36 -6 -36 -5 -36 31 0 30 4 36 20 36 11 0
23 -7 26 -15 8 -21 24 -9 24 18 0 21 -5 22 -71 22 -39 0 -73 -3 -75 -6z"/>
<path d="M3434 1331 c-2 -2 -4 -13 -4 -23 0 -19 15 -24 25 -8 3 6 17 10 31 10
24 0 24 -1 24 -95 0 -57 -4 -95 -10 -95 -5 0 -10 -4 -10 -9 0 -5 23 -9 50 -9
49 -1 66 10 35 22 -12 4 -15 25 -15 96 0 90 0 90 25 90 14 0 28 -7 31 -15 10
-25 24 -17 24 13 l0 27 -101 0 c-55 0 -103 -2 -105 -4z"/>
<path d="M2887 1000 c-38 -30 -33 -39 13 -26 27 7 40 15 38 25 -5 23 -23 23
-51 1z"/>
<path d="M1180 854 c-24 -58 -49 -108 -56 -111 -28 -10 -13 -23 26 -23 22 0
40 5 40 10 0 6 -4 10 -9 10 -6 0 -6 12 1 31 9 26 15 30 42 27 27 -3 32 -8 40
-40 9 -37 11 -38 53 -38 43 0 59 14 25 22 -13 4 -33 40 -61 112 -24 58 -47
106 -51 106 -4 0 -27 -48 -50 -106z m56 -31 c-2 -3 -11 -3 -19 -1 -11 2 -12 9
-5 28 l10 25 9 -24 c5 -13 7 -26 5 -28z"/>
<path d="M1453 949 c-46 -13 -73 -53 -73 -105 0 -88 40 -124 137 -124 68 0 83
10 83 60 0 20 5 41 12 48 9 9 0 12 -42 12 -51 0 -52 -1 -37 -18 21 -23 22 -71
2 -78 -25 -10 -75 16 -90 47 -8 15 -15 43 -15 62 0 70 86 104 134 52 l24 -25
4 30 c3 17 2 33 -2 35 -16 10 -108 13 -137 4z"/>
<path d="M2545 952 c-61 -20 -89 -65 -82 -129 7 -66 49 -103 115 -103 61 0 93
17 114 60 37 73 9 150 -59 169 -42 12 -58 12 -88 3z m72 -37 c12 -8 27 -31 33
-50 34 -102 -67 -170 -120 -82 -26 41 -25 88 1 121 23 29 54 33 86 11z"/>
<path d="M2790 855 c0 -85 -3 -107 -15 -111 -30 -12 -14 -24 30 -24 25 0 45 5
45 10 0 6 -7 10 -15 10 -12 0 -15 14 -15 62 l0 62 73 -72 c40 -39 78 -72 85
-72 9 0 12 28 12 103 0 67 4 107 12 115 9 9 2 12 -32 12 -41 0 -42 -1 -27 -18
12 -13 17 -36 17 -78 l0 -59 -81 83 c-44 45 -82 82 -85 82 -2 0 -4 -47 -4
-105z"/>
<path d="M3120 948 c-19 -10 -26 -23 -28 -51 -3 -34 2 -43 40 -78 36 -32 41
-42 32 -56 -16 -25 -47 -22 -59 5 -14 32 -25 27 -25 -13 l0 -35 48 0 c91 0
112 70 42 136 -22 21 -40 46 -40 56 0 25 35 23 53 -2 14 -21 15 -21 21 6 4 14
5 28 3 30 -11 12 -66 13 -87 2z"/>
<path d="M1003 939 c15 -9 17 -26 17 -123 0 -99 -3 -117 -21 -140 -21 -27 -12
-34 22 -16 36 20 49 63 49 168 0 63 4 102 12 110 9 9 0 12 -42 12 -42 -1 -51
-3 -37 -11z"/>
<path d="M1684 934 c23 -23 23 -170 -1 -196 -15 -17 -14 -18 42 -18 l59 0 -22
20 c-19 18 -22 31 -22 100 0 58 4 83 16 94 14 15 11 16 -36 16 -47 0 -50 -1
-36 -16z"/>
<path d="M1843 939 c14 -8 17 -25 17 -104 0 -57 -4 -95 -10 -95 -5 0 -10 -5
-10 -10 0 -7 27 -10 73 -8 l72 3 3 30 c2 27 1 28 -11 13 -8 -10 -26 -18 -41
-18 -24 0 -26 3 -26 40 0 33 3 40 19 40 11 0 23 -5 27 -11 8 -13 24 7 24 31 0
12 -8 15 -35 12 -34 -4 -35 -3 -35 32 0 39 17 47 44 21 20 -21 26 -19 26 10 0
25 -1 25 -77 25 -58 -1 -73 -3 -60 -11z"/>
<path d="M2063 932 c23 -26 25 -180 2 -188 -36 -14 -9 -24 65 -24 l80 0 0 33
c-1 29 -2 30 -14 14 -10 -12 -24 -17 -43 -15 l-28 3 -3 85 c-2 71 0 87 14 97
15 11 10 13 -36 13 -51 0 -52 -1 -37 -18z"/>
<path d="M2268 938 c15 -15 17 -198 2 -198 -5 0 -10 -5 -10 -10 0 -7 29 -10
78 -8 l77 3 3 30 c2 27 1 28 -11 13 -8 -11 -28 -18 -46 -18 l-31 0 0 90 c0 74
3 91 18 99 13 8 4 10 -37 11 -43 0 -52 -3 -43 -12z"/>
<path d="M3283 939 c14 -8 17 -25 17 -104 0 -57 -4 -95 -10 -95 -5 0 -10 -4
-10 -10 0 -5 24 -10 53 -10 45 1 50 2 35 14 -11 8 -18 26 -18 47 l0 34 44 -47
c39 -42 49 -48 85 -48 45 0 55 14 18 24 -13 3 -45 29 -72 57 l-47 51 33 35
c19 19 45 40 59 46 24 11 24 11 -15 15 -25 2 -41 -1 -43 -8 -3 -7 -17 -27 -33
-44 l-28 -31 -1 31 c0 16 5 35 12 42 9 9 0 12 -42 12 -42 -1 -51 -3 -37 -11z"/>
<path d="M3544 934 c22 -22 23 -182 1 -190 -33 -13 -12 -24 43 -23 55 0 56 1
35 16 -21 14 -23 23 -23 104 0 73 3 90 18 98 13 8 5 10 -36 11 -49 0 -52 -1
-38 -16z"/>
<path d="M980 560 c0 -5 4 -10 9 -10 5 0 26 -49 46 -110 20 -60 40 -110 44
-110 4 0 21 34 38 76 l30 77 29 -74 c17 -41 35 -74 40 -74 5 0 25 47 45 104
20 58 41 107 47 109 27 9 9 22 -28 22 -36 0 -55 -13 -30 -22 7 -2 4 -25 -8
-63 l-19 -60 -17 38 c-9 20 -23 53 -31 73 -8 19 -19 33 -24 30 -5 -3 -19 -35
-32 -71 -12 -36 -25 -65 -29 -65 -3 0 -13 27 -22 59 -11 43 -12 63 -5 70 8 8
-2 11 -36 11 -26 0 -47 -4 -47 -10z"/>
<path d="M1510 561 c0 -5 7 -11 15 -15 22 -8 21 -168 -1 -190 -14 -15 -11 -16
36 -16 47 0 50 1 36 16 -9 8 -16 30 -16 47 l0 31 49 -48 c43 -42 52 -47 86
-44 l38 3 -38 25 c-21 14 -52 42 -69 63 l-30 37 39 40 c22 22 45 40 52 40 7 0
13 5 13 10 0 6 -18 10 -40 10 -29 0 -40 -4 -40 -15 0 -8 -13 -29 -30 -47 l-29
-33 -1 34 c0 21 7 39 18 47 15 12 10 13 -35 14 -29 0 -53 -4 -53 -9z"/>
<path d="M1803 557 c14 -12 17 -30 17 -104 0 -56 -4 -93 -12 -101 -9 -9 0 -12
43 -12 41 1 50 3 37 11 -19 10 -26 79 -9 79 5 0 21 -17 37 -37 36 -48 42 -53
81 -53 l32 0 -51 51 c-49 49 -50 51 -32 70 20 22 23 74 5 92 -6 6 -46 13 -89
15 -67 2 -75 1 -59 -11z m105 -29 c25 -25 8 -78 -25 -78 -9 0 -13 15 -13 45 0
46 13 58 38 33z"/>
<path d="M2110 465 c-23 -58 -50 -110 -59 -115 -12 -7 -5 -9 27 -10 28 0 41 4
37 11 -4 5 -4 21 -1 35 5 19 13 24 40 24 28 0 35 -4 42 -27 4 -16 7 -31 6 -35
-1 -5 19 -8 44 -8 45 0 46 0 25 18 -11 9 -38 59 -59 111 -21 52 -43 96 -49 98
-6 2 -30 -44 -53 -102z m59 -17 c1 -5 -6 -8 -14 -8 -16 0 -19 9 -8 36 6 16 7
16 14 -2 4 -10 8 -22 8 -26z"/>
<path d="M2330 561 c0 -5 7 -11 15 -15 22 -8 21 -168 -1 -190 -14 -15 -11 -16
36 -16 47 0 50 1 36 16 -9 8 -16 30 -16 47 l0 31 49 -48 c43 -42 52 -47 87
-44 l39 3 -32 17 c-17 10 -48 38 -69 63 l-37 46 38 39 c22 22 45 40 51 40 7 0
16 5 19 10 4 6 -12 10 -39 10 -38 0 -46 -3 -46 -18 0 -10 -13 -31 -30 -47
l-30 -29 0 37 c0 26 4 37 15 37 8 0 15 5 15 10 0 6 -22 10 -50 10 -27 0 -50
-4 -50 -9z"/>
<path d="M2634 536 c-28 -28 -34 -41 -34 -77 0 -94 76 -149 163 -118 57 20 82
58 81 121 0 44 -5 55 -32 80 -27 24 -41 28 -88 28 -50 0 -59 -3 -90 -34z m109
3 c33 -15 52 -52 50 -101 -4 -79 -68 -105 -117 -47 -35 41 -36 100 -1 134 27
28 34 30 68 14z"/>
<path d="M2900 561 c0 -5 4 -11 9 -13 4 -1 23 -48 41 -103 18 -55 36 -104 41
-109 7 -8 30 35 65 122 9 21 12 17 39 -48 17 -40 34 -72 40 -72 5 0 24 45 42
99 18 54 40 103 48 109 24 18 18 24 -25 24 -36 0 -55 -13 -30 -22 5 -2 2 -28
-9 -63 l-19 -60 -25 55 c-13 30 -27 63 -30 73 -10 28 -24 12 -48 -54 -12 -33
-25 -62 -29 -64 -10 -6 -40 103 -33 121 4 11 -4 14 -36 14 -23 0 -41 -4 -41
-9z"/>
<path d="M3290 560 c0 -5 5 -10 10 -10 15 0 13 -197 -2 -203 -7 -3 12 -6 42
-6 42 0 51 2 38 10 -15 8 -18 25 -18 101 0 75 3 93 18 104 15 12 10 13 -35 14
-29 0 -53 -4 -53 -10z"/>
<path d="M3470 560 c0 -5 5 -10 10 -10 15 0 13 -197 -2 -203 -7 -3 22 -6 65
-6 77 -1 77 -1 77 26 0 25 -1 25 -19 9 -32 -29 -56 -17 -59 32 -3 37 -1 42 18
42 11 0 23 -7 26 -15 10 -25 24 -17 24 14 0 28 -2 29 -35 24 -35 -6 -35 -5
-35 31 0 31 3 36 23 36 13 0 28 -5 35 -12 8 -8 12 -9 12 -1 0 6 3 18 6 27 5
14 -5 16 -70 16 -44 0 -76 -4 -76 -10z"/>
</g>
</svg>
